Phenomenal Eevee
…
names(tv_shows_cleaned)[4] = 'rotten_tomatoes'
names(tv_shows_cleaned)[7] = 'prime_video'
names(tv_shows_cleaned)[8] = 'disney_plus'
        
tv_shows_cleaned

# A tibble: 5,368 × 8
   Title        Year Age   rotten_tomatoes Netflix Hulu  prime_video disney_plus
   <chr>       <dbl> <chr>           <int> <chr>   <chr> <chr>       <chr>      
 1 Breaking B…  2008 18+               100 Yes     No    No          No         
 2 Stranger T…  2016 16+                96 Yes     No    No          No         
 3 Attack on …  2013 18+                95 Yes     Yes   No          No         
 4 Better Cal…  2015 18+                94 Yes     No    No          No         
 5 Dark         2017 16+                93 Yes     No    No          No         
 6 Avatar: Th…  2005 7+                 93 Yes     No    Yes         No         
 7 Peaky Blin…  2013 18+                93 Yes     No    No          No         
 8 The Walkin…  2010 18+                93 Yes     No    No          No         
 9 Black Mirr…  2011 18+                92 Yes     No    No          No         
10 The Queen'…  2020 18+                92 Yes     No    No          No         
# ℹ 5,358 more rows
…
