Phenomenal Eevee
…
tv_shows_cleaned <- tv_shows |>
  mutate(Netflix = if_else(Netflix == 1, "Yes", "No"), 
         Hulu = if_else(Hulu == 1, "Yes", "No"),
         `Prime Video` = if_else(`Prime Video` == 1, "Yes", "No"),
         `Disney+` = if_else(`Disney+` == 1, "Yes", "No"),
         `Rotten Tomatoes` = str_remove(`Rotten Tomatoes`, "/100"),
         `Rotten Tomatoes` = parse_integer(`Rotten Tomatoes`)) |>
  mutate(exclusive_netflix = Netflix == "Yes" & Hulu == "No" & `Prime Video` == "No" & `Disney+` == "No",
         exclusive_hulu = Hulu == "Yes" & Netflix == "No" & `Prime Video` == "No" & `Disney+` == "No",
         exclusive_prime_video = `Prime Video` == "Yes" & Netflix == "No" & Hulu == "No" & `Disney+` == "No",
         exclusive_disney_plus = `Disney+` == "Yes" & Netflix == "No" & Hulu == "No" & `Prime Video` == "No")

tv_shows_cleaned

# A tibble: 5,368 × 16
    ...1    ID Title            Year Age   IMDb  `Rotten Tomatoes` Netflix Hulu 
   <dbl> <dbl> <chr>           <dbl> <chr> <chr>             <int> <chr>   <chr>
 1     0     1 Breaking Bad     2008 18+   9.4/…               100 Yes     No   
 2     1     2 Stranger Things  2016 16+   8.7/…                96 Yes     No   
 3     2     3 Attack on Titan  2013 18+   9.0/…                95 Yes     Yes  
 4     3     4 Better Call Sa…  2015 18+   8.8/…                94 Yes     No   
 5     4     5 Dark             2017 16+   8.8/…                93 Yes     No   
 6     5     6 Avatar: The La…  2005 7+    9.3/…                93 Yes     No   
 7     6     7 Peaky Blinders   2013 18+   8.8/…                93 Yes     No   
 8     7     8 The Walking De…  2010 18+   8.2/…                93 Yes     No   
 9     8     9 Black Mirror     2011 18+   8.8/…                92 Yes     No   
10     9    10 The Queen's Ga…  2020 18+   8.6/…                92 Yes     No   
# ℹ 5,358 more rows
# ℹ 7 more variables: `Prime Video` <chr>, `Disney+` <chr>, Type <dbl>,
#   exclusive_netflix <lgl>, exclusive_hulu <lgl>, exclusive_prime_video <lgl>,
#   exclusive_disney_plus <lgl>
…
tv_shows_cleaned_copy1 <- tv_shows_cleaned_copy |>
  pivot_longer(
    cols = exclusive_netflix:exclusive_disney_plus,
    names_to = "all_platforms",
    values_to = "exclusivity"
  )

tv_shows_cleaned_copy1

# A tibble: 21,472 × 14
    ...1    ID Title  Year Age   IMDb  rotten_tomatoes Netflix Hulu  prime_video
   <dbl> <dbl> <chr> <dbl> <chr> <chr>           <int> <chr>   <chr> <chr>      
 1     0     1 Brea…  2008 18+   9.4/…             100 Yes     No    No         
 2     0     1 Brea…  2008 18+   9.4/…             100 Yes     No    No         
 3     0     1 Brea…  2008 18+   9.4/…             100 Yes     No    No         
 4     0     1 Brea…  2008 18+   9.4/…             100 Yes     No    No         
 5     1     2 Stra…  2016 16+   8.7/…              96 Yes     No    No         
 6     1     2 Stra…  2016 16+   8.7/…              96 Yes     No    No         
 7     1     2 Stra…  2016 16+   8.7/…              96 Yes     No    No         
 8     1     2 Stra…  2016 16+   8.7/…              96 Yes     No    No         
 9     2     3 Atta…  2013 18+   9.0/…              95 Yes     Yes   No         
10     2     3 Atta…  2013 18+   9.0/…              95 Yes     Yes   No         
# ℹ 21,462 more rows
# ℹ 4 more variables: disney_plus <chr>, Type <dbl>, all_platforms <chr>,
#   exclusivity <lgl>
…
